<?xml version="1.0" standalone="no"?>
<!DOCTYPE svg PUBLIC "-//W3C//DTD SVG 20010904//EN"
 "http://www.w3.org/TR/2001/REC-SVG-20010904/DTD/svg10.dtd">
<svg version="1.0" xmlns="http://www.w3.org/2000/svg"
 width="512.000000pt" height="512.000000pt" viewBox="0 0 512.000000 512.000000"
 preserveAspectRatio="xMidYMid meet">
<metadata>
Created by potrace 1.11, written by Peter Selinger 2001-2013
</metadata>
<g transform="translate(0.000000,512.000000) scale(0.100000,-0.100000)"
fill="#000000" stroke="none">
<path d="M2378 5116 c-1 -2 -34 -6 -73 -10 -38 -3 -97 -10 -130 -16 -33 -6
-76 -13 -95 -16 -19 -3 -51 -9 -70 -14 -19 -5 -46 -11 -60 -14 -14 -2 -65 -16
-115 -31 -483 -140 -941 -445 -1260 -840 -78 -96 -225 -308 -225 -324 0 -5 -3
-11 -7 -13 -13 -5 -128 -243 -173 -359 -35 -87 -93 -278 -104 -339 -2 -14 -7
-36 -10 -50 -53 -226 -69 -672 -32 -885 3 -16 8 -43 10 -60 13 -97 50 -247 92
-377 14 -43 22 -83 18 -89 -4 -7 -3 -9 4 -5 7 4 15 -6 20 -26 26 -93 147 -330
247 -483 155 -239 299 -396 575 -629 42 -35 200 -140 290 -192 81 -47 252
-134 265 -134 3 0 24 -9 48 -19 158 -72 415 -140 622 -166 28 -4 77 -10 110
-15 101 -13 478 -4 600 14 267 41 560 132 770 239 22 11 41 18 41 16 1 -2 10
3 20 11 11 8 35 24 54 34 19 11 54 32 78 48 24 15 45 28 47 28 10 0 148 100
235 171 257 207 486 480 635 757 15 28 33 52 38 52 6 0 8 3 5 6 -3 3 14 51 39
107 25 56 51 116 58 132 29 67 77 223 104 338 28 117 41 188 60 342 9 69 7
491 -2 530 -3 11 -8 45 -11 75 -20 157 -89 432 -141 555 -6 17 -25 61 -41 100
-16 38 -50 110 -76 160 -27 49 -56 106 -65 125 -10 19 -20 37 -23 40 -3 3 -21
30 -40 60 -193 308 -502 604 -845 812 -231 140 -590 275 -825 312 -19 3 -44 8
-56 10 -12 2 -45 7 -74 11 -29 4 -62 9 -74 12 -23 5 -452 13 -458 9z"/>
</g>
</svg>
